["mappings/tables/config/FxRatePriorityDefault.hdbcds",
"mappings/data/config/FxRatePriorityDefault.csv",
"mappings/data/config/FxRatePriorityDefault.hdbtabledata",
"mappings/procedures/config/Load_FxRatePriorityDefault.hdbprocedure",
"mappings/tables/map_FxRatePriority.hdbcds",
"mappings/versioning/map_FxRatePriority.hdbapplicationtime",
"mappings/versioning/map_FxRatePriority.hdbsystemversioning",
"mappings/views/map_FxRatePriority_View.hdbview",
"mappings/tables/map_Discriminator.hdbcds"
]