AccrualType;IsRelevant
AcquisitionCostExpense;true
AcquisitionCostIncome;true
BalloonInterestExpense;true
BalloonInterestIncome;true
ClaimExpense;true
ClaimIncome;true
FeeExpense;true
FeeIncome;true
InterestExpense;true
InterestInArrearsExpense;true
InterestInArrearsIncome;true
InterestIncome;true
PremiumExpense;true
PremiumIncome;true
ProfitSharingExpense;true
ProfitSharingIncome;true
RegularInterestExpense;true
RegularInterestIncome;true
SpecificReportingInterestExpense;true
SpecificReportingInterestIncome;true