Alpha2Code,Description
AR,Alpha 2 Code - Argentina
AU,Alpha 2 Code - Australia
AT,Alpha 2 Code - Austria
BD,Alpha 2 Code - Bangladesh
BE,Alpha 2 Code - Belgium
BM,Alpha 2 Code - Bermuda
BR,Alpha 2 Code - Brazil
BG,Alpha 2 Code - Bulgaria
CA,Alpha 2 Code - Canada
KY,Alpha 2 Code - CaymanIslands
CL,Alpha 2 Code - Chile
CN,Alpha 2 Code - China
CO,Alpha 2 Code - Colombia
HR,Alpha 2 Code - Croatia
CY,Alpha 2 Code - Cyprus
DK,Alpha 2 Code - Denmark
EE,Alpha 2 Code - Estonia
EU,Alpha 2 Code - EuropeanCurrencyUnionECU
FI,Alpha 2 Code - Finland
FR,Alpha 2 Code - France
DE,Alpha 2 Code - Germany
GB,Alpha 2 Code - GreatBritainEnglandandWales
GR,Alpha 2 Code - Greece
HU,Alpha 2 Code - Hungary
IS,Alpha 2 Code - Iceland
IN,Alpha 2 Code - India
ID,Alpha 2 Code - Indonesia
IE,Alpha 2 Code - Ireland
IL,Alpha 2 Code - Israel
IT,Alpha 2 Code - Italy
JP,Alpha 2 Code - Japan
JE,Alpha 2 Code - Jersey
JO,Alpha 2 Code - Jordan
KZ,Alpha 2 Code - Kazakhstan
LV,Alpha 2 Code - Latvia
LT,Alpha 2 Code - Lithuania
LU,Alpha 2 Code - Luxembourg
MY,Alpha 2 Code - Malaysia
MT,Alpha 2 Code - Malta
MX,Alpha 2 Code - Mexico
MA,Alpha 2 Code - Morocco
NL,Alpha 2 Code - Netherlands
NZ,Alpha 2 Code - New Zealand
NG,Alpha 2 Code - Nigeria
NO,Alpha 2 Code - Norway
PK,Alpha 2 Code - Pakistan
PE,Alpha 2 Code - Peru
PH,Alpha 2 Code - Philippines
PL,Alpha 2 Code - Poland
PT,Alpha 2 Code - Portugal
RO,Alpha 2 Code - Romania
RU,Alpha 2 Code - Russian Federation
SA,Alpha 2 Code - Saudi Arabia
SG,Alpha 2 Code - Singapore
SK,Alpha 2 Code - SlovakRepublic
SI,Alpha 2 Code - Slovenia
ZA,Alpha 2 Code - SouthAfrica
KR,Alpha 2 Code - SouthKorea
ES,Alpha 2 Code - SpainStandard
SE,Alpha 2 Code - Sweden
CH,Alpha 2 Code - Switzerland
TW,Alpha 2 Code - Taiwan
TH,Alpha 2 Code - Thailand
TN,Alpha 2 Code - Tunisia
TR,Alpha 2 Code - Turkey
UA,Alpha 2 Code - Ukraine
AE,Alpha 2 Code - UnitedArabEmirates
US,Alpha 2 Code - USA
VE,Alpha 2 Code - Venezuela
