ProductCatalogItem;contractFSType
DerivativesAccount;BROKERED_DEPOSITS
InvestmentAccount;BROKERED_DEPOSITS
CurrentAccount;CURRENT_ACCOUNT
EscrowAccount;CURRENT_ACCOUNT
TrustAccount;CURRENT_ACCOUNT
CallDepositAccount;FIXED_NOTICE_ACCOUNT
FixedTermDeposit;FIXED_TERM_ACCOUNT
SavingsAccount;SAVINGS_ACCOUNT
SavingScheme;SAVINGS_ACCOUNT
AssetBackedSecurities;ASSET_BACKED
ABCPProgram;ASSET_BACKED
MortgageBackedSecurities;ASSET_BACKED
ResidentialMortgageBackedSecurities;ASSET_BACKED
CommercialMortgageBackedSecurities;ASSET_BACKED
PreemptiveRight;COMMON_STOCK
ConvertibleBond;CONVERTIBLE_BOND
MediumTermNote;CORPORATE_BOND
CommercialPaper;COMMERCIAL_PAPER
CoveredBond;COVERED_BOND
CertificateOfDeposit;OTHER_ACCOUNT
MultiCurrencyBond;OTHER_ACCOUNT
PlainVanillaBond;OTHER_ACCOUNT
RedeemableBonds;OTHER_ACCOUNT
DebtInstrument;OTHER_ACCOUNT
EquityInvestment;OTHER_ACCOUNT
CreditLinkedNote;STRUCTURED_NOTES
RepurchaseAgreement;SECURITIES_LENDING
TripartyRepurchaseAgreement;SECURITIES_LENDING
ReverseRepurchaseAgreement;SECURITIES_BORROWING
TripartyReverseRepurchaseAgreement;SECURITIES_BORROWING
SecuritiesLending;SECURITIES_LENDING
SecuritiesBorrowing;SECURITIES_BORROWING
CommercialLoan;CREDIT
Loan;CREDIT
ConsumerLoan;CREDIT
FiduciaryLoan;CREDIT
LombardLoan;CREDIT
PassThroughLoan;CREDIT
PromissoryNoteLoan;CREDIT
SyndicatedLoan;CREDIT
SpecializedLendingLoan;MARGIN_LENDING
MortgageLoan;MORTGAGE
FXSwap;DRV_FOREX
InterestRateSwap;DRV_INT
CrossCurrencySwap;DRV_INT
Swaption;DRV_OPTION
ForwardRateAgreement;DRV_INT
CreditCard;OTHER_ACCOUNT
BondForward;DRV_INT
EquityForward;DRV_EQUITY
InflationSwap;DRV_INT
InterestRateOption;DRV_OPTION
IndexCreditDefaultSwap;DRV_CREDIT