Discriminator,CashflowType,CashFlowItemCategory,CashFlowItemType
INC,ContractualCashFlowStream, ,PrincipalChanges
FEE,ContractualCashFlowStream, ,FeePayments
SFTEX,ContractualCashFlowStream, ,SecurityTransactions
SFTOUT,ContractualCashFlowStream, ,SecurityTransactions
DEC,ContractualCashFlowStream, ,PrincipalChanges
IP,ContractualCashFlowStream,InterestCashFlowItem,InterestPayments
AIP,ContractualCashFlowStream,InterestCashFlowItem,InterestPayments
AIC,ContractualCashFlowStream,InterestCashFlowItem,PaymentOfInterest
VD,ContractualCashFlowStream, ,PrincipalChanges
MD,ContractualCashFlowStream, ,PrincipalChanges
PRP,BestEstimatedCashFlowStream, ,UnscheduledRepayment
PRI,BestEstimatedCashFlowStream,InterestCashFlowItem,InterestPayments
OPM,ContractualCashFlowStream, ,OptionPremium
RPINC,ContractualCashFlowStream, ,PrincipalChanges
FWDSET,ContractualCashFlowStream, ,PrincipalChanges