ELSECase,OneSumXValue,FSDMValue
false,Equity Investment in funds,EquityExposure
false,Defaulted,ExposuresInDefault
false,Covered bonds,ExposuresInTheFormOfCoveredBonds
false,Real estate,ExposuresSecuredByMortgagesOnImmovableProperty
false,Sovereigns,ExposuresToCentralGovernmentsOrCentralBanks
false,Corporates,ExposuresToCorporatesOtherThanSpecialisedLending
false,Specialised lending,ExposuresToCorporatesSpecialisedLending
false,Banks,ExposuresToInstitutions
false,MDBs,ExposuresToMultilateralDevelopmentBanks
false,PSEs,ExposuresToPublicSectorEntities
false,Securitization,ItemsRepresentingSecuritisationPositions
false,Other asstes,OtherItems
false,Retail,RetailExposures
false,Other retail,RetailExposuresOther
false,QRRE,RetailExposuresQualifyingRevolving
false,RRME,RetailExposuresSecuredByImmovableProperty
false,Securities firms and other financial institutions,ExposuresToInstitutions
false,"Subordinated debt, equity and other capital instruments",OtherItems
