Priority,ConsolidatedStatement,ReportedAccountingSystem
1,true,IFRS
2,true,LocalGAAP
3,true,GermanTaxLaw
4,true,NonIFRS
5,false,IFRS
6,false,LocalGAAP
7,false,GermanTaxLaw
8,false,NonIFRS
9,false,
10,true,
11,,