LegalFormCode;LiquiditySubTypRelevant
DE504;true
AT610;true
BE014;true
CY103;true
DK235;true
EE101;true
ESC04;true
EU100;true
FI49;true
GR905;true
HR03;true
HU736;true
IE05;true
LT101;true
LU07;true
LU33;true
MT060;true
NL102;true
NL401;true
NL402;true
PLB401;true
PT131;true
PT331;true
SE87;true
RO110;true
SI352;true
SK111;true
FR5630;true
FR5631;true
FR5632;true
FR5642;true
FR5643;true
FR5599;true
FR5610;true
FR5622;true
FR5625;true