StreamName,PostingOrValueDateCutoff,RoleOfCurrency,Priority
Account,Posting,ReportingCurrency,1
Account,Posting,LocalCurrency,2
Account,Posting,GlobalCurrency,3
Account,Posting,FunctionalCurrency,4
Account,Posting,IndexCurrency,5
Account,Posting,HardCurrency,6
Account,Posting,NULL,7
Account,Posting,"",8
Account,Posting, ,9
Account,Value,ReportingCurrency,10
Account,Value,LocalCurrency,11
Account,Value,GlobalCurrency,12
Account,Value,FunctionalCurrency,13
Account,Value,IndexCurrency,14
Account,Value,HardCurrency,15
Account,Value,NULL,16
Account,Value,"",17
Account,Value, ,18
Account,Else,ReportingCurrency,19
Account,Else,LocalCurrency,20
Account,Else,GlobalCurrency,21
Account,Else,FunctionalCurrency,22
Account,Else,IndexCurrency,23
Account,Else,HardCurrency,24
Account,NULL,NULL,25
Account,"","",26
Account, , ,27
AmortizingShortGuarantee,Posting,ReportingCurrency,1
AmortizingShortGuarantee,Posting,LocalCurrency,2
AmortizingShortGuarantee,Posting,GlobalCurrency,3
AmortizingShortGuarantee,Posting,FunctionalCurrency,4
AmortizingShortGuarantee,Posting,IndexCurrency,5
AmortizingShortGuarantee,Posting,HardCurrency,6
AmortizingShortGuarantee,Posting,NULL,7
AmortizingShortGuarantee,Posting,"",8
AmortizingShortGuarantee,Posting, ,9
AmortizingShortGuarantee,Value,ReportingCurrency,10
AmortizingShortGuarantee,Value,LocalCurrency,11
AmortizingShortGuarantee,Value,GlobalCurrency,12
AmortizingShortGuarantee,Value,FunctionalCurrency,13
AmortizingShortGuarantee,Value,IndexCurrency,14
AmortizingShortGuarantee,Value,HardCurrency,15
AmortizingShortGuarantee,Value,NULL,16
AmortizingShortGuarantee,Value,"",17
AmortizingShortGuarantee,Value, ,18
AmortizingShortGuarantee,Else,ReportingCurrency,19
AmortizingShortGuarantee,Else,LocalCurrency,20
AmortizingShortGuarantee,Else,GlobalCurrency,21
AmortizingShortGuarantee,Else,FunctionalCurrency,22
AmortizingShortGuarantee,Else,IndexCurrency,23
AmortizingShortGuarantee,Else,HardCurrency,24
AmortizingShortGuarantee,NULL,NULL,25
AmortizingShortGuarantee,"","",26
AmortizingShortGuarantee, , ,27
AmortizingShortGuaranteeUnderlying,Posting,ReportingCurrency,1
AmortizingShortGuaranteeUnderlying,Posting,LocalCurrency,2
AmortizingShortGuaranteeUnderlying,Posting,GlobalCurrency,3
AmortizingShortGuaranteeUnderlying,Posting,FunctionalCurrency,4
AmortizingShortGuaranteeUnderlying,Posting,IndexCurrency,5
AmortizingShortGuaranteeUnderlying,Posting,HardCurrency,6
AmortizingShortGuaranteeUnderlying,Posting,NULL,7
AmortizingShortGuaranteeUnderlying,Posting,"",8
AmortizingShortGuaranteeUnderlying,Posting, ,9
AmortizingShortGuaranteeUnderlying,Value,ReportingCurrency,10
AmortizingShortGuaranteeUnderlying,Value,LocalCurrency,11
AmortizingShortGuaranteeUnderlying,Value,GlobalCurrency,12
AmortizingShortGuaranteeUnderlying,Value,FunctionalCurrency,13
AmortizingShortGuaranteeUnderlying,Value,IndexCurrency,14
AmortizingShortGuaranteeUnderlying,Value,HardCurrency,15
AmortizingShortGuaranteeUnderlying,Value,NULL,16
AmortizingShortGuaranteeUnderlying,Value,"",17
AmortizingShortGuaranteeUnderlying,Value, ,18
AmortizingShortGuaranteeUnderlying,Else,ReportingCurrency,19
AmortizingShortGuaranteeUnderlying,Else,LocalCurrency,20
AmortizingShortGuaranteeUnderlying,Else,GlobalCurrency,21
AmortizingShortGuaranteeUnderlying,Else,FunctionalCurrency,22
AmortizingShortGuaranteeUnderlying,Else,IndexCurrency,23
AmortizingShortGuaranteeUnderlying,Else,HardCurrency,24
AmortizingShortGuaranteeUnderlying,NULL,NULL,25
AmortizingShortGuaranteeUnderlying,"","",26
AmortizingShortGuaranteeUnderlying, , ,27
CollateralCash,Posting,ReportingCurrency,1
CollateralCash,Posting,LocalCurrency,2
CollateralCash,Posting,GlobalCurrency,3
CollateralCash,Posting,FunctionalCurrency,4
CollateralCash,Posting,IndexCurrency,5
CollateralCash,Posting,HardCurrency,6
CollateralCash,Posting,NULL,7
CollateralCash,Posting,"",8
CollateralCash,Posting, ,9
CollateralCash,Value,ReportingCurrency,10
CollateralCash,Value,LocalCurrency,11
CollateralCash,Value,GlobalCurrency,12
CollateralCash,Value,FunctionalCurrency,13
CollateralCash,Value,IndexCurrency,14
CollateralCash,Value,HardCurrency,15
CollateralCash,Value,NULL,16
CollateralCash,Value,"",17
CollateralCash,Value, ,18
CollateralCash,Else,ReportingCurrency,19
CollateralCash,Else,LocalCurrency,20
CollateralCash,Else,GlobalCurrency,21
CollateralCash,Else,FunctionalCurrency,22
CollateralCash,Else,IndexCurrency,23
CollateralCash,Else,HardCurrency,24
CollateralCash,NULL,NULL,25
CollateralCash,"","",26
CollateralCash, , ,27
Facility,Posting,ReportingCurrency,1
Facility,Posting,LocalCurrency,2
Facility,Posting,GlobalCurrency,3
Facility,Posting,FunctionalCurrency,4
Facility,Posting,IndexCurrency,5
Facility,Posting,HardCurrency,6
Facility,Posting,NULL,7
Facility,Posting,"",8
Facility,Posting, ,9
Facility,Value,ReportingCurrency,10
Facility,Value,LocalCurrency,11
Facility,Value,GlobalCurrency,12
Facility,Value,FunctionalCurrency,13
Facility,Value,IndexCurrency,14
Facility,Value,HardCurrency,15
Facility,Value,NULL,16
Facility,Value,"",17
Facility,Value, ,18
Facility,Else,ReportingCurrency,19
Facility,Else,LocalCurrency,20
Facility,Else,GlobalCurrency,21
Facility,Else,FunctionalCurrency,22
Facility,Else,IndexCurrency,23
Facility,Else,HardCurrency,24
Facility,NULL,NULL,25
Facility,"","",26
Facility, , ,27
FixedTermDeposit,Posting,ReportingCurrency,1
FixedTermDeposit,Posting,LocalCurrency,2
FixedTermDeposit,Posting,GlobalCurrency,3
FixedTermDeposit,Posting,FunctionalCurrency,4
FixedTermDeposit,Posting,IndexCurrency,5
FixedTermDeposit,Posting,HardCurrency,6
FixedTermDeposit,Posting,NULL,7
FixedTermDeposit,Posting,"",8
FixedTermDeposit,Posting, ,9
FixedTermDeposit,Value,ReportingCurrency,10
FixedTermDeposit,Value,LocalCurrency,11
FixedTermDeposit,Value,GlobalCurrency,12
FixedTermDeposit,Value,FunctionalCurrency,13
FixedTermDeposit,Value,IndexCurrency,14
FixedTermDeposit,Value,HardCurrency,15
FixedTermDeposit,Value,NULL,16
FixedTermDeposit,Value,"",17
FixedTermDeposit,Value, ,18
FixedTermDeposit,Else,ReportingCurrency,19
FixedTermDeposit,Else,LocalCurrency,20
FixedTermDeposit,Else,GlobalCurrency,21
FixedTermDeposit,Else,FunctionalCurrency,22
FixedTermDeposit,Else,IndexCurrency,23
FixedTermDeposit,Else,HardCurrency,24
FixedTermDeposit,NULL,NULL,25
FixedTermDeposit,"","",26
FixedTermDeposit, , ,27
FSGuarantee,Posting,ReportingCurrency,1
FSGuarantee,Posting,LocalCurrency,2
FSGuarantee,Posting,GlobalCurrency,3
FSGuarantee,Posting,FunctionalCurrency,4
FSGuarantee,Posting,IndexCurrency,5
FSGuarantee,Posting,HardCurrency,6
FSGuarantee,Posting,NULL,7
FSGuarantee,Posting,"",8
FSGuarantee,Posting, ,9
FSGuarantee,Value,ReportingCurrency,10
FSGuarantee,Value,LocalCurrency,11
FSGuarantee,Value,GlobalCurrency,12
FSGuarantee,Value,FunctionalCurrency,13
FSGuarantee,Value,IndexCurrency,14
FSGuarantee,Value,HardCurrency,15
FSGuarantee,Value,NULL,16
FSGuarantee,Value,"",17
FSGuarantee,Value, ,18
FSGuarantee,Else,ReportingCurrency,19
FSGuarantee,Else,LocalCurrency,20
FSGuarantee,Else,GlobalCurrency,21
FSGuarantee,Else,FunctionalCurrency,22
FSGuarantee,Else,IndexCurrency,23
FSGuarantee,Else,HardCurrency,24
FSGuarantee,NULL,NULL,25
FSGuarantee,"","",26
FSGuarantee, , ,27
SyndGuarantee,Posting,ReportingCurrency,1
SyndGuarantee,Posting,LocalCurrency,2
SyndGuarantee,Posting,GlobalCurrency,3
SyndGuarantee,Posting,FunctionalCurrency,4
SyndGuarantee,Posting,IndexCurrency,5
SyndGuarantee,Posting,HardCurrency,6
SyndGuarantee,Posting,NULL,7
SyndGuarantee,Posting,"",8
SyndGuarantee,Posting, ,9
SyndGuarantee,Value,ReportingCurrency,10
SyndGuarantee,Value,LocalCurrency,11
SyndGuarantee,Value,GlobalCurrency,12
SyndGuarantee,Value,FunctionalCurrency,13
SyndGuarantee,Value,IndexCurrency,14
SyndGuarantee,Value,HardCurrency,15
SyndGuarantee,Value,NULL,16
SyndGuarantee,Value,"",17
SyndGuarantee,Value, ,18
SyndGuarantee,Else,ReportingCurrency,19
SyndGuarantee,Else,LocalCurrency,20
SyndGuarantee,Else,GlobalCurrency,21
SyndGuarantee,Else,FunctionalCurrency,22
SyndGuarantee,Else,IndexCurrency,23
SyndGuarantee,Else,HardCurrency,24
SyndGuarantee,NULL,NULL,25
SyndGuarantee,"","",26
SyndGuarantee, , ,27
ComplexLoan,Posting,ReportingCurrency,1
ComplexLoan,Posting,LocalCurrency,2
ComplexLoan,Posting,GlobalCurrency,3
ComplexLoan,Posting,FunctionalCurrency,4
ComplexLoan,Posting,IndexCurrency,5
ComplexLoan,Posting,HardCurrency,6
ComplexLoan,Posting,NULL,7
ComplexLoan,Posting,"",8
ComplexLoan,Posting, ,9
ComplexLoan,Value,ReportingCurrency,10
ComplexLoan,Value,LocalCurrency,11
ComplexLoan,Value,GlobalCurrency,12
ComplexLoan,Value,FunctionalCurrency,13
ComplexLoan,Value,IndexCurrency,14
ComplexLoan,Value,HardCurrency,15
ComplexLoan,Value,NULL,16
ComplexLoan,Value,"",17
ComplexLoan,Value, ,18
ComplexLoan,Else,ReportingCurrency,19
ComplexLoan,Else,LocalCurrency,20
ComplexLoan,Else,GlobalCurrency,21
ComplexLoan,Else,FunctionalCurrency,22
ComplexLoan,Else,IndexCurrency,23
ComplexLoan,Else,HardCurrency,24
ComplexLoan,NULL,NULL,25
ComplexLoan,"","",26
ComplexLoan, , ,27
Loan,Posting,ReportingCurrency,1
Loan,Posting,LocalCurrency,2
Loan,Posting,GlobalCurrency,3
Loan,Posting,FunctionalCurrency,4
Loan,Posting,IndexCurrency,5
Loan,Posting,HardCurrency,6
Loan,Posting,NULL,7
Loan,Posting,"",8
Loan,Posting, ,9
Loan,Value,ReportingCurrency,10
Loan,Value,LocalCurrency,11
Loan,Value,GlobalCurrency,12
Loan,Value,FunctionalCurrency,13
Loan,Value,IndexCurrency,14
Loan,Value,HardCurrency,15
Loan,Value,NULL,16
Loan,Value,"",17
Loan,Value, ,18
Loan,Else,ReportingCurrency,19
Loan,Else,LocalCurrency,20
Loan,Else,GlobalCurrency,21
Loan,Else,FunctionalCurrency,22
Loan,Else,IndexCurrency,23
Loan,Else,HardCurrency,24
Loan,NULL,NULL,25
Loan,"","",26
Loan, , ,27
SyndicatedLoan,Posting,ReportingCurrency,1
SyndicatedLoan,Posting,LocalCurrency,2
SyndicatedLoan,Posting,GlobalCurrency,3
SyndicatedLoan,Posting,FunctionalCurrency,4
SyndicatedLoan,Posting,IndexCurrency,5
SyndicatedLoan,Posting,HardCurrency,6
SyndicatedLoan,Posting,NULL,7
SyndicatedLoan,Posting,"",8
SyndicatedLoan,Posting, ,9
SyndicatedLoan,Value,ReportingCurrency,10
SyndicatedLoan,Value,LocalCurrency,11
SyndicatedLoan,Value,GlobalCurrency,12
SyndicatedLoan,Value,FunctionalCurrency,13
SyndicatedLoan,Value,IndexCurrency,14
SyndicatedLoan,Value,HardCurrency,15
SyndicatedLoan,Value,NULL,16
SyndicatedLoan,Value,"",17
SyndicatedLoan,Value, ,18
SyndicatedLoan,Else,ReportingCurrency,19
SyndicatedLoan,Else,LocalCurrency,20
SyndicatedLoan,Else,GlobalCurrency,21
SyndicatedLoan,Else,FunctionalCurrency,22
SyndicatedLoan,Else,IndexCurrency,23
SyndicatedLoan,Else,HardCurrency,24
SyndicatedLoan,NULL,NULL,25
SyndicatedLoan,"","",26
SyndicatedLoan, , ,27
AgreedLimitComplexLoan,Posting,ReportingCurrency,1
AgreedLimitComplexLoan,Posting,LocalCurrency,2
AgreedLimitComplexLoan,Posting,GlobalCurrency,3
AgreedLimitComplexLoan,Posting,FunctionalCurrency,4
AgreedLimitComplexLoan,Posting,IndexCurrency,5
AgreedLimitComplexLoan,Posting,HardCurrency,6
AgreedLimitComplexLoan,Posting,NULL,7
AgreedLimitComplexLoan,Posting,"",8
AgreedLimitComplexLoan,Posting, ,9
AgreedLimitComplexLoan,Value,ReportingCurrency,10
AgreedLimitComplexLoan,Value,LocalCurrency,11
AgreedLimitComplexLoan,Value,GlobalCurrency,12
AgreedLimitComplexLoan,Value,FunctionalCurrency,13
AgreedLimitComplexLoan,Value,IndexCurrency,14
AgreedLimitComplexLoan,Value,HardCurrency,15
AgreedLimitComplexLoan,Value,NULL,16
AgreedLimitComplexLoan,Value,"",17
AgreedLimitComplexLoan,Value, ,18
AgreedLimitComplexLoan,Else,ReportingCurrency,19
AgreedLimitComplexLoan,Else,LocalCurrency,20
AgreedLimitComplexLoan,Else,GlobalCurrency,21
AgreedLimitComplexLoan,Else,FunctionalCurrency,22
AgreedLimitComplexLoan,Else,IndexCurrency,23
AgreedLimitComplexLoan,Else,HardCurrency,24
AgreedLimitComplexLoan,NULL,NULL,25
AgreedLimitComplexLoan,"","",26
AgreedLimitComplexLoan, , ,27
AgreedLimitLoan,Posting,ReportingCurrency,1
AgreedLimitLoan,Posting,LocalCurrency,2
AgreedLimitLoan,Posting,GlobalCurrency,3
AgreedLimitLoan,Posting,FunctionalCurrency,4
AgreedLimitLoan,Posting,IndexCurrency,5
AgreedLimitLoan,Posting,HardCurrency,6
AgreedLimitLoan,Posting,NULL,7
AgreedLimitLoan,Posting,"",8
AgreedLimitLoan,Posting, ,9
AgreedLimitLoan,Value,ReportingCurrency,10
AgreedLimitLoan,Value,LocalCurrency,11
AgreedLimitLoan,Value,GlobalCurrency,12
AgreedLimitLoan,Value,FunctionalCurrency,13
AgreedLimitLoan,Value,IndexCurrency,14
AgreedLimitLoan,Value,HardCurrency,15
AgreedLimitLoan,Value,NULL,16
AgreedLimitLoan,Value,"",17
AgreedLimitLoan,Value, ,18
AgreedLimitLoan,Else,ReportingCurrency,19
AgreedLimitLoan,Else,LocalCurrency,20
AgreedLimitLoan,Else,GlobalCurrency,21
AgreedLimitLoan,Else,FunctionalCurrency,22
AgreedLimitLoan,Else,IndexCurrency,23
AgreedLimitLoan,Else,HardCurrency,24
AgreedLimitLoan,NULL,NULL,25
AgreedLimitLoan,"","",26
AgreedLimitLoan, , ,27
AgreedLimitSyndicatedLoan,Posting,ReportingCurrency,1
AgreedLimitSyndicatedLoan,Posting,LocalCurrency,2
AgreedLimitSyndicatedLoan,Posting,GlobalCurrency,3
AgreedLimitSyndicatedLoan,Posting,FunctionalCurrency,4
AgreedLimitSyndicatedLoan,Posting,IndexCurrency,5
AgreedLimitSyndicatedLoan,Posting,HardCurrency,6
AgreedLimitSyndicatedLoan,Posting,NULL,7
AgreedLimitSyndicatedLoan,Posting,"",8
AgreedLimitSyndicatedLoan,Posting, ,9
AgreedLimitSyndicatedLoan,Value,ReportingCurrency,10
AgreedLimitSyndicatedLoan,Value,LocalCurrency,11
AgreedLimitSyndicatedLoan,Value,GlobalCurrency,12
AgreedLimitSyndicatedLoan,Value,FunctionalCurrency,13
AgreedLimitSyndicatedLoan,Value,IndexCurrency,14
AgreedLimitSyndicatedLoan,Value,HardCurrency,15
AgreedLimitSyndicatedLoan,Value,NULL,16
AgreedLimitSyndicatedLoan,Value,"",17
AgreedLimitSyndicatedLoan,Value, ,18
AgreedLimitSyndicatedLoan,Else,ReportingCurrency,19
AgreedLimitSyndicatedLoan,Else,LocalCurrency,20
AgreedLimitSyndicatedLoan,Else,GlobalCurrency,21
AgreedLimitSyndicatedLoan,Else,FunctionalCurrency,22
AgreedLimitSyndicatedLoan,Else,IndexCurrency,23
AgreedLimitSyndicatedLoan,Else,HardCurrency,24
AgreedLimitSyndicatedLoan,NULL,NULL,25
AgreedLimitSyndicatedLoan,"","",26
AgreedLimitSyndicatedLoan, , ,27
AgreedLimitCurrentAccount,Posting,ReportingCurrency,1
AgreedLimitCurrentAccount,Posting,LocalCurrency,2
AgreedLimitCurrentAccount,Posting,GlobalCurrency,3
AgreedLimitCurrentAccount,Posting,FunctionalCurrency,4
AgreedLimitCurrentAccount,Posting,IndexCurrency,5
AgreedLimitCurrentAccount,Posting,HardCurrency,6
AgreedLimitCurrentAccount,Posting,NULL,7
AgreedLimitCurrentAccount,Posting,"",8
AgreedLimitCurrentAccount,Posting, ,9
AgreedLimitCurrentAccount,Value,ReportingCurrency,10
AgreedLimitCurrentAccount,Value,LocalCurrency,11
AgreedLimitCurrentAccount,Value,GlobalCurrency,12
AgreedLimitCurrentAccount,Value,FunctionalCurrency,13
AgreedLimitCurrentAccount,Value,IndexCurrency,14
AgreedLimitCurrentAccount,Value,HardCurrency,15
AgreedLimitCurrentAccount,Value,NULL,16
AgreedLimitCurrentAccount,Value,"",17
AgreedLimitCurrentAccount,Value, ,18
AgreedLimitCurrentAccount,Else,ReportingCurrency,19
AgreedLimitCurrentAccount,Else,LocalCurrency,20
AgreedLimitCurrentAccount,Else,GlobalCurrency,21
AgreedLimitCurrentAccount,Else,FunctionalCurrency,22
AgreedLimitCurrentAccount,Else,IndexCurrency,23
AgreedLimitCurrentAccount,Else,HardCurrency,24
AgreedLimitCurrentAccount,NULL,NULL,25
AgreedLimitCurrentAccount,"","",26
AgreedLimitCurrentAccount, , ,27
AgreedLimitFacility,Posting,ReportingCurrency,1
AgreedLimitFacility,Posting,LocalCurrency,2
AgreedLimitFacility,Posting,GlobalCurrency,3
AgreedLimitFacility,Posting,FunctionalCurrency,4
AgreedLimitFacility,Posting,IndexCurrency,5
AgreedLimitFacility,Posting,HardCurrency,6
AgreedLimitFacility,Posting,NULL,7
AgreedLimitFacility,Posting,"",8
AgreedLimitFacility,Posting, ,9
AgreedLimitFacility,Value,ReportingCurrency,10
AgreedLimitFacility,Value,LocalCurrency,11
AgreedLimitFacility,Value,GlobalCurrency,12
AgreedLimitFacility,Value,FunctionalCurrency,13
AgreedLimitFacility,Value,IndexCurrency,14
AgreedLimitFacility,Value,HardCurrency,15
AgreedLimitFacility,Value,NULL,16
AgreedLimitFacility,Value,"",17
AgreedLimitFacility,Value, ,18
AgreedLimitFacility,Else,ReportingCurrency,19
AgreedLimitFacility,Else,LocalCurrency,20
AgreedLimitFacility,Else,GlobalCurrency,21
AgreedLimitFacility,Else,FunctionalCurrency,22
AgreedLimitFacility,Else,IndexCurrency,23
AgreedLimitFacility,Else,HardCurrency,24
AgreedLimitFacility,NULL,NULL,25
AgreedLimitFacility,"","",26
AgreedLimitFacility, , ,27
AgreedLimitCreditCard,Posting,ReportingCurrency,1
AgreedLimitCreditCard,Posting,LocalCurrency,2
AgreedLimitCreditCard,Posting,GlobalCurrency,3
AgreedLimitCreditCard,Posting,FunctionalCurrency,4
AgreedLimitCreditCard,Posting,IndexCurrency,5
AgreedLimitCreditCard,Posting,HardCurrency,6
AgreedLimitCreditCard,Posting,NULL,7
AgreedLimitCreditCard,Posting,"",8
AgreedLimitCreditCard,Posting, ,9
AgreedLimitCreditCard,Value,ReportingCurrency,10
AgreedLimitCreditCard,Value,LocalCurrency,11
AgreedLimitCreditCard,Value,GlobalCurrency,12
AgreedLimitCreditCard,Value,FunctionalCurrency,13
AgreedLimitCreditCard,Value,IndexCurrency,14
AgreedLimitCreditCard,Value,HardCurrency,15
AgreedLimitCreditCard,Value,NULL,16
AgreedLimitCreditCard,Value,"",17
AgreedLimitCreditCard,Value, ,18
AgreedLimitCreditCard,Else,ReportingCurrency,19
AgreedLimitCreditCard,Else,LocalCurrency,20
AgreedLimitCreditCard,Else,GlobalCurrency,21
AgreedLimitCreditCard,Else,FunctionalCurrency,22
AgreedLimitCreditCard,Else,IndexCurrency,23
AgreedLimitCreditCard,Else,HardCurrency,24
AgreedLimitCreditCard,NULL,NULL,25
AgreedLimitCreditCard,"","",26
AgreedLimitCreditCard, , ,27
CreditCard,Posting,ReportingCurrency,1
CreditCard,Posting,LocalCurrency,2
CreditCard,Posting,GlobalCurrency,3
CreditCard,Posting,FunctionalCurrency,4
CreditCard,Posting,IndexCurrency,5
CreditCard,Posting,HardCurrency,6
CreditCard,Posting,NULL,7
CreditCard,Posting,"",8
CreditCard,Posting, ,9
CreditCard,Value,ReportingCurrency,10
CreditCard,Value,LocalCurrency,11
CreditCard,Value,GlobalCurrency,12
CreditCard,Value,FunctionalCurrency,13
CreditCard,Value,IndexCurrency,14
CreditCard,Value,HardCurrency,15
CreditCard,Value,NULL,16
CreditCard,Value,"",17
CreditCard,Value, ,18
CreditCard,Else,ReportingCurrency,19
CreditCard,Else,LocalCurrency,20
CreditCard,Else,GlobalCurrency,21
CreditCard,Else,FunctionalCurrency,22
CreditCard,Else,IndexCurrency,23
CreditCard,Else,HardCurrency,24
CreditCard,NULL,NULL,25
CreditCard,"","",26
CreditCard, , ,27
AgreedLimitFSGuarantee,Posting,ReportingCurrency,1
AgreedLimitFSGuarantee,Posting,LocalCurrency,2
AgreedLimitFSGuarantee,Posting,GlobalCurrency,3
AgreedLimitFSGuarantee,Posting,FunctionalCurrency,4
AgreedLimitFSGuarantee,Posting,IndexCurrency,5
AgreedLimitFSGuarantee,Posting,HardCurrency,6
AgreedLimitFSGuarantee,Posting,NULL,7
AgreedLimitFSGuarantee,Posting,"",8
AgreedLimitFSGuarantee,Posting, ,9
AgreedLimitFSGuarantee,Value,ReportingCurrency,10
AgreedLimitFSGuarantee,Value,LocalCurrency,11
AgreedLimitFSGuarantee,Value,GlobalCurrency,12
AgreedLimitFSGuarantee,Value,FunctionalCurrency,13
AgreedLimitFSGuarantee,Value,IndexCurrency,14
AgreedLimitFSGuarantee,Value,HardCurrency,15
AgreedLimitFSGuarantee,Value,NULL,16
AgreedLimitFSGuarantee,Value,"",17
AgreedLimitFSGuarantee,Value, ,18
AgreedLimitFSGuarantee,Else,ReportingCurrency,19
AgreedLimitFSGuarantee,Else,LocalCurrency,20
AgreedLimitFSGuarantee,Else,GlobalCurrency,21
AgreedLimitFSGuarantee,Else,FunctionalCurrency,22
AgreedLimitFSGuarantee,Else,IndexCurrency,23
AgreedLimitFSGuarantee,Else,HardCurrency,24
AgreedLimitFSGuarantee,NULL,NULL,25
AgreedLimitFSGuarantee,"","",26
AgreedLimitFSGuarantee, , ,27
AgreedLimitSyndGuarantee,Posting,ReportingCurrency,1
AgreedLimitSyndGuarantee,Posting,LocalCurrency,2
AgreedLimitSyndGuarantee,Posting,GlobalCurrency,3
AgreedLimitSyndGuarantee,Posting,FunctionalCurrency,4
AgreedLimitSyndGuarantee,Posting,IndexCurrency,5
AgreedLimitSyndGuarantee,Posting,HardCurrency,6
AgreedLimitSyndGuarantee,Posting,NULL,7
AgreedLimitSyndGuarantee,Posting,"",8
AgreedLimitSyndGuarantee,Posting, ,9
AgreedLimitSyndGuarantee,Value,ReportingCurrency,10
AgreedLimitSyndGuarantee,Value,LocalCurrency,11
AgreedLimitSyndGuarantee,Value,GlobalCurrency,12
AgreedLimitSyndGuarantee,Value,FunctionalCurrency,13
AgreedLimitSyndGuarantee,Value,IndexCurrency,14
AgreedLimitSyndGuarantee,Value,HardCurrency,15
AgreedLimitSyndGuarantee,Value,NULL,16
AgreedLimitSyndGuarantee,Value,"",17
AgreedLimitSyndGuarantee,Value, ,18
AgreedLimitSyndGuarantee,Else,ReportingCurrency,19
AgreedLimitSyndGuarantee,Else,LocalCurrency,20
AgreedLimitSyndGuarantee,Else,GlobalCurrency,21
AgreedLimitSyndGuarantee,Else,FunctionalCurrency,22
AgreedLimitSyndGuarantee,Else,IndexCurrency,23
AgreedLimitSyndGuarantee,Else,HardCurrency,24
AgreedLimitSyndGuarantee,NULL,NULL,25
AgreedLimitSyndGuarantee,"","",26
AgreedLimitSyndGuarantee, , ,27
HomeLoanSavingsContract,Posting,ReportingCurrency,1
HomeLoanSavingsContract,Posting,LocalCurrency,2
HomeLoanSavingsContract,Posting,GlobalCurrency,3
HomeLoanSavingsContract,Posting,FunctionalCurrency,4
HomeLoanSavingsContract,Posting,IndexCurrency,5
HomeLoanSavingsContract,Posting,HardCurrency,6
HomeLoanSavingsContract,Posting,NULL,7
HomeLoanSavingsContract,Posting,"",8
HomeLoanSavingsContract,Posting, ,9
HomeLoanSavingsContract,Value,ReportingCurrency,10
HomeLoanSavingsContract,Value,LocalCurrency,11
HomeLoanSavingsContract,Value,GlobalCurrency,12
HomeLoanSavingsContract,Value,FunctionalCurrency,13
HomeLoanSavingsContract,Value,IndexCurrency,14
HomeLoanSavingsContract,Value,HardCurrency,15
HomeLoanSavingsContract,Value,NULL,16
HomeLoanSavingsContract,Value,"",17
HomeLoanSavingsContract,Value, ,18
HomeLoanSavingsContract,Else,ReportingCurrency,19
HomeLoanSavingsContract,Else,LocalCurrency,20
HomeLoanSavingsContract,Else,GlobalCurrency,21
HomeLoanSavingsContract,Else,FunctionalCurrency,22
HomeLoanSavingsContract,Else,IndexCurrency,23
HomeLoanSavingsContract,Else,HardCurrency,24
HomeLoanSavingsContract,NULL,NULL,25
HomeLoanSavingsContract,"","",26
HomeLoanSavingsContract, , ,27
