OsxDayCountConventionCode,Description
1,The numerator specifies which method is used to calculate the number of days between two dates and the denominator specifies with how many days a year is taken into account
2,The numerator specifies which method is used to calculate the number of days between two dates and the denominator specifies with how many days a year is taken into account
3,The numerator specifies which method is used to calculate the number of days between two dates and the denominator specifies with how many days a year is taken into account
4,The numerator specifies which method is used to calculate the number of days between two dates and the denominator specifies with how many days a year is taken into account
5,The numerator specifies which method is used to calculate the number of days between two dates and the denominator specifies with how many days a year is taken into account
6,The numerator specifies which method is used to calculate the number of days between two dates and the denominator specifies with how many days a year is taken into account
7,The numerator specifies which method is used to calculate the number of days between two dates and the denominator specifies with how many days a year is taken into account
8,The numerator specifies which method is used to calculate the number of days between two dates and the denominator specifies with how many days a year is taken into account
9,The numerator specifies which method is used to calculate the number of days between two dates and the denominator specifies with how many days a year is taken into account
10,The numerator specifies which method is used to calculate the number of days between two dates and the denominator specifies with how many days a year is taken into account
11,The numerator specifies which method is used to calculate the number of days between two dates and the denominator specifies with how many days a year is taken into account
12,The numerator specifies which method is used to calculate the number of days between two dates and the denominator specifies with how many days a year is taken into account
13,The numerator specifies which method is used to calculate the number of days between two dates and the denominator specifies with how many days a year is taken into account
14,The numerator specifies which method is used to calculate the number of days between two dates and the denominator specifies with how many days a year is taken into account