SpecialCounterpartyType,Description
BIS,Bank for International Settlements
IMF,International Monetary Fund
ECB,European Central Bank
EU,European Union
ESM,European Stability Mechanism
EFSF,European Financial Stability Facility
IBRD,International Bank for Reconstruction and Development
IFC,International Finance Corporation
MIGA,Multilateral Investment Guarantee Agency
IDA,International Development Association
ADB,Asian Development Bank
AFDB,African Development Bank
EBRD,European Bank for Reconstruction and Development
IDB,Inter-American Development Bank
EIB,European Investment Bank
EIF,European Investment Fund
NIB,Nordic Investment Bank
CDB,Caribbean Development Bank
ISDB,Islamic Development Bank
CEB,Council of Europe Development Bank
IFFIM,International Finance Facility for Immunization
AIIB,Asian Infrastructure Investment Bank
Confidential,