ProductCatalogID;ProductCatalogItemCode;productFSClass;contractFSType;contractFSSubType;instrumentType
FSDMStandard;ABCPProgram;SECURITY;;;
FSDMStandard;AdvancePaymentGuarantee;;GUARANTEE;;
FSDMStandard;AssetBackedCommercialPapers;SECURITY;;;Money Market - Asset Backet Commercial Paper
FSDMStandard;AssetBackedSecurities;SECURITY;ABS;;ABS - Other
FSDMStandard;BasketCreditDefaultSwap;DERIVATIVE;DRV_CREDIT;;Credit Default Swap - Basket CDS
FSDMStandard;BondForward;DERIVATIVE;DRV_INT;DRV_FORWARD;
FSDMStandard;BondIndexFuture;DERIVATIVE;DRV_INT;DRV_FUTURE;
FSDMStandard;BondOTCOption;DERIVATIVE;DRV_INT;DRV_OPTION;
FSDMStandard;Brokerage;-;;;
FSDMStandard;CallDepositAccount;BORROWING;;;
FSDMStandard;Cap;DERIVATIVE;DRV_INT;;
FSDMStandard;CertificateOfDeposit;;;;Money Market - Certificate of Deposit
FSDMStandard;ClosedFundShare;;MANAGED_FUND;;
FSDMStandard;Collar;DERIVATIVE;DRV_INT;;
FSDMStandard;CollateralizedDebtObligation;SECURITY;STRUCTURED_PRODUCT;;
FSDMStandard;CollateralizedLoanObligation;SECURITY;STRUCTURED_PRODUCT;;
FSDMStandard;CollateralSwap;COLLATERAL_SWAP;;;
FSDMStandard;CommercialLoan;BORROWING;CREDIT;;
FSDMStandard;CommercialMortgageBackedSecurities;SECURITY;;COMMERCIAL_MBS;MBS - Commercial
FSDMStandard;CommercialPaper;;COMMERCIAL_PAPER;;Money Market - Commercial Paper
FSDMStandard;CommodityDerivative;;;;
FSDMStandard;CommodityForward;DERIVATIVE;DRV_COMMODITY;DRV_FORWARD;Forward - Commodity
FSDMStandard;CommodityFuture;DERIVATIVE;DRV_COMMODITY;DRV_FUTURE;Future - Commodity
FSDMStandard;CommodityIndexFuture;DERIVATIVE;DRV_COMMODITY;DRV_FUTURE;Future - Commodity
FSDMStandard;CommodityOTCOption;DERIVATIVE;DRV_COMMODITY;DRV_OPTION;Option - Commodity
FSDMStandard;CommoditySwap;DERIVATIVE;DRV_COMMODITY;;Swap - Commodity
FSDMStandard;CommoditySwaption;DERIVATIVE;DRV_COMMODITY;;Option - Swap
FSDMStandard;CommodityTrade;COMMODITY;;;
FSDMStandard;ConsumerLoan;BORROWING;CREDIT;;Loan - Consumer
FSDMStandard;ContingentLiability;;;;
FSDMStandard;ConvertibleBond;;CONVERTIBLE_BOND;;
FSDMStandard;CoveredBond;;COVERED_BOND;;
FSDMStandard;CreditBusiness;;;;
FSDMStandard;CreditCard;CREDITCARD;;;
FSDMStandard;CreditDefaultSwap;;DRV_CREDIT;;
FSDMStandard;CreditDerivative;;;;
FSDMStandard;CreditLinkedNote;;STRUCTURED_NOTE;;
FSDMStandard;CrossCurrencyInterestSwap;DERIVATIVE;DRV_INT;;
FSDMStandard;CurrencyIndexFuture;DERIVATIVE;DRV_FOREX;DRV_FUTURE;
FSDMStandard;CurrentAccount;BORROWING;CURRENT_ACCOUNT;;
FSDMStandard;DebitCard;;;;
FSDMStandard;DebtInstrument;;;;
FSDMStandard;DepositBusiness;;;;
FSDMStandard;DerivativesAccount;;;;
FSDMStandard;DerivativesBusiness;;;;
FSDMStandard;EquityDerivative;;;;
FSDMStandard;EquityForward;DERIVATIVE;DRV_EQUITY;DRV_FORWARD;Forward - Equity Index
FSDMStandard;EquityFuture;DERIVATIVE;DRV_EQUITY;DRV_FUTURE;Future - Equity Index
FSDMStandard;EquityIndexFuture;DERIVATIVE;DRV_EQUITY;DRV_FUTURE;Future - Equity Index
FSDMStandard;EquityInstrument;;;;
FSDMStandard;EquityInvestment;EQUITY;;;
FSDMStandard;EquityOTCOption;DERIVATIVE;DRV_EQUITY;DRV_OPTION;
FSDMStandard;EscrowAccount;BORROWING;CURRENT_ACCOUNT;;
FSDMStandard;Facility;;;;
FSDMStandard;Factoring ;;;;
FSDMStandard;FiduciaryLoan;BORROWING;CREDIT;;
FSDMStandard;FixedTermDeposit;BORROWING;FIXED_TERM_ACCOUNT;;
FSDMStandard;Floor;DERIVATIVE;DRV_INT;;
FSDMStandard;ForwardRateAgreement;DERIVATIVE;DRV_INT;DRV_FORWARD;
FSDMStandard;FutureTrade;;;;
FSDMStandard;FXDerivative;;;;
FSDMStandard;FXForward;DERIVATIVE;DRV_FOREX;DRV_FORWARD;Forward - Currency
FSDMStandard;FXFuture;DERIVATIVE;DRV_FOREX;DRV_FUTURE;Future - Currency
FSDMStandard;FXOTCOption;DERIVATIVE;DRV_FOREX;DRV_OPTION;Option - Currency
FSDMStandard;FXOTCSpot;DERIVATIVE;DRV_FOREX;;
FSDMStandard;FXSwap;DERIVATIVE;DRV_FOREX;;Swap - Currency
FSDMStandard;FXTrade;;;;
FSDMStandard;Guarantee;;;;
FSDMStandard;IndexCreditDefaultSwap;DERIVATIVE;DRV_CREDIT;;
FSDMStandard;IndexTotalReturnSwap;DERIVATIVE;DRV_CREDIT;;
FSDMStandard;InterestDerivative;;;;
FSDMStandard;InterestRateFuture;DERIVATIVE;DRV_INT;DRV_FUTURE;Future - Interest Rate
FSDMStandard;InterestRateOTCOption;DERIVATIVE;DRV_INT;DRV_OPTION;Option - Interest Rate
FSDMStandard;InterestRateSwap;DERIVATIVE;DRV_INT;;Swap - Interest Rate
FSDMStandard;InvestmentAccount;;;;
FSDMStandard;InvestmentFundShare;;;;
FSDMStandard;InvoiceDiscounting;;;;
FSDMStandard;LetterOfCredit;;;;
FSDMStandard;ListedBondOption;DERIVATIVE;DRV_INT;DRV_OPTION;
FSDMStandard;ListedCommodityOption;DERIVATIVE;DRV_COMMODITY;DRV_OPTION;Option - Commodity
FSDMStandard;ListedEquityOption;DERIVATIVE;DRV_EQUITY;DRV_OPTION;
FSDMStandard;ListedFXOption;DERIVATIVE;DRV_FOREX;DRV_OPTION;Option - Currency
FSDMStandard;ListedInterestRateOption;DERIVATIVE;DRV_INT;DRV_OPTION;Option - Interest Rate
FSDMStandard;Loan;BORROWING;CREDIT;;
FSDMStandard;LombardLoan;BORROWING;CREDIT;;
FSDMStandard;MediumTermNote;;;;
FSDMStandard;MortgageBackedSecurities;;;;
FSDMStandard;MortgageLoan;BORROWING;MORTGAGE;;
FSDMStandard;MultiCurrencyBond;;;;
FSDMStandard;NonRevolvingFacility;;FINANCING_FACILITIES;;
FSDMStandard;OpenFundShare;;MANAGED_FUND;;
FSDMStandard;OptionOnBondIndexFuture;DERIVATIVE;DRV_INT;DRV_OPTION;Option - Future
FSDMStandard;OptionOnCommodityFuture;DERIVATIVE;DRV_COMMODITY;DRV_OPTION;Option - Commodity
FSDMStandard;OptionOnCommodityIndexFuture;DERIVATIVE;DRV_COMMODITY;DRV_OPTION;Option - Commodity
FSDMStandard;OptionOnCurrencyIndexFuture;DERIVATIVE;DRV_FOREX;DRV_OPTION;Option - Future
FSDMStandard;OptionOnEquityFuture;DERIVATIVE;DRV_EQUITY;DRV_OPTION;Option - Future
FSDMStandard;OptionOnEquityIndexFuture;DERIVATIVE;DRV_EQUITY;DRV_OPTION;Option - Future
FSDMStandard;OptionOnFXFuture;DERIVATIVE;DRV_FOREX;DRV_OPTION;Option - Future
FSDMStandard;OptionOnInterestRateFuture;DERIVATIVE;DRV_INT;DRV_OPTION;Option - Future
FSDMStandard;OptionTrade;;;;
FSDMStandard;ParticipationCertificate;;;;
FSDMStandard;PassThroughLoan;BORROWING;CREDIT;;
FSDMStandard;PaymentCard;;;;
FSDMStandard;PaymentGuarantee;;GUARANTEE;;
FSDMStandard;PerformanceGuarantee;;GUARANTEE;;
FSDMStandard;PlainVanillaBond;;;;
FSDMStandard;PreemptiveRight;;;;
FSDMStandard;PrepaidCard;;;;
FSDMStandard;PromissoryNoteLoan;BORROWING;CREDIT;;
FSDMStandard;PurchasedReceivable;;;;
FSDMStandard;RedeemableBonds;;;;
FSDMStandard;RepurchaseAgreement;REPO_CASH;;;
FSDMStandard;ResidentialMortgageBackedSecurities;SECURITY;;RESIDENTIAL_MBS;MBS - Residential
FSDMStandard;ReverseRepurchaseAgreement;REVREPO_CASH;;;
FSDMStandard;RevolvingCreditFacility;;FINANCING_FACILITIES;;
FSDMStandard;SavingsAccount;BORROWING;SAVINGS_ACCOUNT;;
FSDMStandard;SavingsAndDeposits;;;;
FSDMStandard;SavingScheme;BORROWING;SAVINGS_ACCOUNT;;
FSDMStandard;SecuritiesAccount;;;;
FSDMStandard;SecuritiesBorrowing;LENDING;SECURITIES_BORROWING;;
FSDMStandard;SecuritiesBusiness;;;;
FSDMStandard;SecuritiesFinancing;;;;
FSDMStandard;SecuritiesLending;;;;
FSDMStandard;SecuritiesPositionAccount;;;;
FSDMStandard;Securitization;;;;
FSDMStandard;SecuritizationBusiness;;;;
FSDMStandard;SecurityTrade;;;;
FSDMStandard;SingleNamedCreditDefaultSwap;DERIVATIVE;DRV_CREDIT;;Credit Default Swap - Single Entity CDS
FSDMStandard;SingleNamedTotalReturnSwap;DERIVATIVE;DRV_CREDIT;;
FSDMStandard;SpecialFundShare;;MANAGED_FUND;;
FSDMStandard;SpecializedLendingLoan;BORROWING;CREDIT;;
FSDMStandard;StandByLetterOfCredit;;LETTER_OF_CREDIT;;
FSDMStandard;Stock;EQUITY;;;
FSDMStandard;Swaption;DERIVATIVE;DRV_INT;;Option - Swap
FSDMStandard;SyndicatedFacility;;FINANCING_FACILITIES;;
FSDMStandard;SyndicatedLetterOfCredit;;LETTER_OF_CREDIT;;
FSDMStandard;SyndicatedLoan;BORROWING;;;
FSDMStandard;TotalReturnSwap;;DRV_CREDIT;;
FSDMStandard;Trade;;;;
FSDMStandard;TradeLetterOfCredit;;LETTER_OF_CREDIT;;
FSDMStandard;TransactionalAccount;;;;
FSDMStandard;TripartyRepurchaseAgreement;REPO_CASH;;;
FSDMStandard;TripartyReverseRepurchaseAgreement;REVREPO_CASH;;;
FSDMStandard;TrustAccount;BORROWING;CURRENT_ACCOUNT;;
FSDMStandard;Warrant;;;;Warrant
FSDMStandard;WarrantyBond;;GUARANTEE;;