Description,ResultFactTableName,CreateResultGroup,CreateMaturityBand,CreateRiskNodeHierarchy,DetermineBaseCurrency,LastChangedBy,LastChangedOn,LoadProcedureName,StreamName,IsActive,TbsKind,TbsColName,TbsOvertimeKind,TbsOvertimeColName,DeriveContractInformation
,RES_FACT_CONTINGENT_GAP,true,true,true,true,,,com.adweko.adapter.osx.procedures::Load_RES_FACT_CONTINGENT_GAP_into_FSDM,Liquidity,true,CONT,CONT_GAP_TB,,,true
,RES_FACT_DYN_LIQUIDITY_GAP,true,true,true,true,,,com.adweko.adapter.osx.procedures::Load_RES_FACT_DYN_LIQUIDITY_GAP_into_FSDM,Liquidity,true,DSIM,DYN_SIMUL_BUCKET_IDX,,,true
,RES_FACT_DYN_REPO_POS,true,true,true,true,,,com.adweko.adapter.osx.procedures::Load_RES_FACT_DYN_REPO_POS_into_FSDM,Liquidity,true,DSIM,DYN_SIMUL_BUCKET_IDX,,,true
,RES_FACT_LCR_GAP,true,true,true,true,,,com.adweko.adapter.osx.procedures::Load_RES_FACT_LCR_GAP_into_FSDM,Liquidity,true,LCR,LCR_GAP_TB,,,true
,RES_FACT_LCR_LIQ_OVER_TIME,true,true,true,true,,,com.adweko.adapter.osx.procedures::Load_RES_FACT_LCR_LIQ_OVER_TIME_into_FSDM,Liquidity,true,DSIM,DYN_SIMUL_BUCKET_IDX,LCR,LCR_GAP_OVER_TIME_TB,true
,RES_FACT_LIQ_GAP_OVER_TIME,true,true,true,true,,,com.adweko.adapter.osx.procedures::Load_RES_FACT_LIQ_GAP_OVER_TIME_into_FSDM,Liquidity,true,DSIM,DYN_SIMUL_BUCKET_IDX,LIQ,LIQ_GAP_OVER_TIME_TB,true
,RES_FACT_LIQUIDITY_GAP,true,true,true,true,,,com.adweko.adapter.osx.procedures::Load_RES_FACT_LIQUIDITY_GAP_into_FSDM,Liquidity,true,LIQ,LIQ_GAP_TB,,,true
,RES_FACT_REPO_POS,true,false,true,true,,,com.adweko.adapter.osx.procedures::Load_RES_FACT_REPO_POS_into_FSDM,Liquidity,true,,,,,true
,RES_FACT_STOCKFLOW,true,true,true,true,,,com.adweko.adapter.osx.procedures::Load_RES_FACT_STOCKFLOW_into_FSDM,Liquidity,false,SFLW,STOCKFLOW_TB,,,true
,RES_FACT_NPV,true,false,true,true,,,com.adweko.adapter.osx.procedures::Load_RES_FACT_NPV_into_FSDM,Sensitivity,true,,,,,true
,RES_FACT_INDEX_EXP,true,false,true,true,,,com.adweko.adapter.osx.procedures::Load_RES_FACT_INDEX_EXP_into_FSDM,Sensitivity,true,,,,,true
,RES_FACT_FX_EXP,true,false,true,true,,,com.adweko.adapter.osx.procedures::Load_RES_FACT_FX_EXP_into_FSDM,Sensitivity,true,,,,,true
,RES_FACT_REPRICING_GAP,true,true,true,true,,,com.adweko.adapter.osx.procedures::Load_RES_FACT_REPRICING_GAP_into_FSDM,Sensitivity,true,PONL,REPR_GAP_TB,,,true
,RES_FACT_SENS_GAP_OVER_TIME,true,true,true,true,,,com.adweko.adapter.osx.procedures::Load_RES_FACT_SENS_GAP_OVER_TIME_into_FSDM,Sensitivity,true,DSIM,DYN_SIMUL_BUCKET_IDX,SENS,SENS_GAP_OVER_TIME_TB,true
,RES_FACT_SENSITIVITY_GAP,true,true,true,true,,,com.adweko.adapter.osx.procedures::Load_RES_FACT_SENSITIVITY_GAP_into_FSDM,Sensitivity,true,SENS,SENS_GAP_TB,,,true
,RES_FACT_DYN_REPRICING_GAP,true,true,true,true,,,com.adweko.adapter.osx.procedures::Load_RES_FACT_DYN_REPRICING_GAP_into_FSDM,Liquidity,true,DSIM,DYN_SIMUL_BUCKET_IDX,,,true
,RES_FACT_KEY_RATE,true,true,true,true,,,com.adweko.adapter.osx.procedures::Load_RES_FACT_KEY_RATE_into_FSDM,Sensitivity,true,KRAT,KEY_RATE_TB,,,true
,RES_FACT_DYN_NPV,true,true,true,true,,,com.adweko.adapter.osx.procedures::Load_RES_FACT_DYN_NPV_into_FSDM,Sensitivity,true,DSIM,DYN_SIMUL_BUCKET_IDX,,,true
,RES_FACT_REP_GAP_OVER_TIME,true,true,true,true,,,com.adweko.adapter.osx.procedures::Load_RES_FACT_REP_GAP_OVER_TIME_into_FSDM,Sensitivity,true,DSIM,DYN_SIMUL_BUCKET_IDX,REP,REPR_GAP_OVER_TIME_TB,true
,RES_FACT_KEY_RATE_OVER_TIME,true,true,true,true,,,com.adweko.adapter.osx.procedures::Load_RES_FACT_KEY_RATE_OVER_TIME_into_FSDM,Sensitivity,true,DSIM,DYN_SIMUL_BUCKET_IDX,KRAT,KEY_RATE_OVER_TIME_TB,true
,RES_FACT_HISTO_VAR,true,false,true,true,,,com.adweko.adapter.osx.procedures::Load_RES_FACT_HISTO_VAR_into_FSDM,ValueAtRisk,true,,,,,true
,RES_FACT_BACKTESTED_VAR,true,false,false,true,,,com.adweko.adapter.osx.procedures::Load_RES_FACT_BACKTESTED_VAR_into_FSDM,ValueAtRisk,true,,,,,false
,RES_FACT_CADMR_OP_EXP,true,false,false,true,,,com.adweko.adapter.osx.procedures::Load_RES_FACT_CADMR_OP_EXP_into_FSDM,Cadmr,true,,,,,true
,RES_FACT_CADMR_SPEC_IR_EXP,true,false,false,true,,,com.adweko.adapter.osx.procedures::Load_RES_FACT_CADMR_SPEC_IR_EXP_into_FSDM,Cadmr,true,,,,,true
,RES_FACT_CADMR_FX_RSK_EXP,true,false,false,true,,,com.adweko.adapter.osx.procedures::Load_RES_FACT_CADMR_FX_RSK_EXP_into_FSDM,Cadmr,true,,,,,true
,RES_FACT_CADMR_EQ_RSK_EXP,true,false,false,true,,,com.adweko.adapter.osx.procedures::Load_RES_FACT_CADMR_EQ_RSK_EXP_into_FSDM,Cadmr,true,,,,,true
,RES_FACT_CADMR_GEN_IR_EXP,true,false,true,true,,,com.adweko.adapter.osx.procedures::Load_RES_FACT_CADMR_GEN_IR_EXP_into_FSDM,Cadmr,true,,,,,true
,RES_FACT_CAD_CR_CONTRACT,true,true,false,false,,,com.adweko.adapter.osx.procedures::Load_RES_FACT_CAD_CR_CONTRACT_into_FSDM,Cad,true,DSIM,DYN_SIMUL_BUCKET_IDX,,,true
,RES_FACT_CAD_CR_TRANCHE,true,true,false,false,,,com.adweko.adapter.osx.procedures::Load_RES_FACT_CAD_CR_TRANCHE_into_FSDM,Cad,true,DSIM,DYN_SIMUL_BUCKET_IDX,,,true
,RES_FACT_STATIC_INCOME,true,true,false,false,,,com.adweko.adapter.osx.procedures::Load_RES_FACT_STATIC_INCOME_into_FSDM,BookValue,true,STAT,STAT_INCOME_TB,,,true
,RES_FACT_IFRS_BOOK_VALUE,true,false,false,false,,,com.adweko.adapter.osx.procedures::Load_RES_FACT_IFRS_BOOK_VALUE_into_FSDM,BookValue,true,,,,,true
,RES_FACT_DYN_IFRS_BV,true,true,false,false,,,com.adweko.adapter.osx.procedures::Load_RES_FACT_DYN_IFRS_BV_into_FSDM,BookValue,true,DSIM,DYN_SIMUL_BUCKET_IDX,,,true
,RES_FACT_DYN_BOOK_VALUE,true,true,false,false,,,com.adweko.adapter.osx.procedures::Load_RES_FACT_DYN_BOOK_VALUE_into_FSDM,BookValue,true,DSIM,DYN_SIMUL_BUCKET_IDX,,,true
,RES_FACT_BOOK_VALUE,true,false,false,false,,,com.adweko.adapter.osx.procedures::Load_RES_FACT_BOOK_VALUE_into_FSDM,BookValue,true,,,,,true
,RES_FACT_STATIC_INCOME_IFRS,true,true,false,false,,,com.adweko.adapter.osx.procedures::Load_RES_FACT_STATIC_INCOME_IFRS_into_FSDM,BookValue,true,STAT,STAT_INCOME_TB,,,true
,RES_FACT_IFRS_HEDGE_EFF,true,true,false,false,,,com.adweko.adapter.osx.procedures::Load_RES_FACT_IFRS_HEDGE_EFF_into_FSDM,BookValue,true,DSIM,DYN_SIMUL_BUCKET_IDX,,,true
,RES_FACT_IFRS_HEDGE_TEST,true,true,false,false,,,com.adweko.adapter.osx.procedures::Load_RES_FACT_IFRS_HEDGE_TEST_into_FSDM,BookValue,true,DSIM,DYN_SIMUL_BUCKET_IDX,,,true
,RES_FINANCIAL_EVENT,true,false,false,false,,,com.adweko.adapter.osx.procedures::Load_RES_FINANCIAL_EVENT_into_FSDM,CashFlows,true,,,,,true
,RES_FACT_STATIC_ECL,true,false,false,false,,,com.adweko.adapter.osx.procedures::Load_RES_FACT_STATIC_ECL_into_FSDM,OtherCreditRisk,true,,,,,true
,RES_FACT_STATIC_CRPLUS,true,false,false,false,,,com.adweko.adapter.osx.procedures::Load_RES_FACT_STATIC_CRPLUS_into_FSDM,OtherCreditRisk,true,,,,,true
,RES_FACT_CURR_EXP_CONTRACT,true,false,false,false,,,com.adweko.adapter.osx.procedures::Load_RES_FACT_CURR_EXP_CONTRACT_into_FSDM,OtherCreditRisk,true,,,,,true
,RES_FACT_STATIC_CVA,true,false,false,false,,,com.adweko.adapter.osx.procedures::Load_RES_FACT_STATIC_CVA_into_FSDM,OtherCreditRisk,true,,,,,true
,RES_FACT_CURR_EXP_ALLOC,true,false,false,false,,,com.adweko.adapter.osx.procedures::Load_RES_FACT_CURR_EXP_ALLOC_into_FSDM,OtherCreditRisk,true,,,,,true
,RES_FACT_STATIC_PFE,true,true,false,false,,,com.adweko.adapter.osx.procedures::Load_RES_FACT_STATIC_PFE_into_FSDM,OtherCreditRisk,true,POTF,,,,true
,RES_FACT_ECL_OVER_TIME,true,true,true,true,,,com.adweko.adapter.osx.procedures::Load_RES_FACT_ECL_OVER_TIME_into_FSDM,OtherCreditRisk,true,DSIM,DYN_SIMUL_BUCKET_IDX,,,true
,RES_FACT_VOLA_EXP,true,true,true,true,,,com.adweko.adapter.osx.procedures::Load_RES_FACT_VOLA_EXP_into_FSDM,Sensitivity,true,VOL,VOL_EXP_TB,,,true